{
    "boxCutType": "FILL_VECTOR_ENGRAVING",
    "boxSize": 5.0,
    "boxSpacing": 1.5,
    "groupSpacing": 5.0,
    "labelCutType": "FILL_VECTOR_ENGRAVING",
    "labelDensity": 100,
    "labelPasses": 1,
    "labelPower": 80,
    "labelSize": 10.0,
    "labelSpeed": 60,
    "densities": [
        100,
        150,
        200
    ],
    "passes": [
        1,
        2,
        3
    ],
    "powers": [
        10,
        20,
        30,
        40,
        50,
        60,
        70,
        80,
        90,
        100
    ],
    "speeds": [
        20,
        40,
        60,
        80,
        100,
        120,
        140,
        160,
        180,
        200
    ]
}
